\relax 
\@writefile{toc}{\contentsline {section}{\numberline {1}Michaels Advice}{2}\protected@file@percent }
\@writefile{toc}{\contentsline {section}{\numberline {2}Introduction}{2}\protected@file@percent }
\@writefile{toc}{\contentsline {section}{\numberline {3}Paper Summary}{3}\protected@file@percent }
\@writefile{toc}{\contentsline {section}{\numberline {4}Methodology}{4}\protected@file@percent }
\@writefile{toc}{\contentsline {subsection}{\numberline {4.1}Problem Formulation}{4}\protected@file@percent }
\@writefile{toc}{\contentsline {subsubsection}{\numberline {4.1.1}The Restricted Master Problem}{6}\protected@file@percent }
\@writefile{toc}{\contentsline {subsubsection}{\numberline {4.1.2}The Pricing Subproblems}{6}\protected@file@percent }
\@writefile{toc}{\contentsline {subsection}{\numberline {4.2}Solution Implementation}{7}\protected@file@percent }
\@writefile{toc}{\contentsline {subsubsection}{\numberline {4.2.1}Algorithm 1 - Greedy Route Initialisation (Appendix A.4)}{8}\protected@file@percent }
\@writefile{toc}{\contentsline {subsubsection}{\numberline {4.2.2}Algorithm 2 - Framework for suboptimal solution search (A.5)}{8}\protected@file@percent }
\@writefile{lot}{\contentsline {table}{\numberline {1}{\ignorespaces Solution to non-sales MBRP, unconstrained resources}}{9}\protected@file@percent }
\@writefile{toc}{\contentsline {subsubsection}{\numberline {4.2.3}Algorithm 4 - Revise labelling algorithm (A.7)}{10}\protected@file@percent }
\@writefile{toc}{\contentsline {subsubsection}{\numberline {4.2.4}Algorithm 5 - Algorithm for appending a new nectar source (A.8)}{10}\protected@file@percent }
\@writefile{toc}{\contentsline {subsubsection}{\numberline {4.2.5}Algorithm 3 - The CG algorithm for the MBRP (A.6)}{12}\protected@file@percent }
\@writefile{toc}{\contentsline {section}{\numberline {5}Project Results}{12}\protected@file@percent }
\@writefile{toc}{\contentsline {section}{\numberline {6}Next Steps}{13}\protected@file@percent }
\@writefile{toc}{\contentsline {section}{\numberline {7}Future of the MBRP}{13}\protected@file@percent }
\@writefile{toc}{\contentsline {section}{\numberline {8}Conclusion}{13}\protected@file@percent }
